%YAML 1.1
%TAG !u! tag:unity3d.com,2011:
--- !u!74 &7400000
AnimationClip:
  m_ObjectHideFlags: 0
  m_PrefabParentObject: {fileID: 0}
  m_PrefabInternal: {fileID: 0}
  m_Name: common_movagame
  serializedVersion: 6
  m_Legacy: 0
  m_Compressed: 0
  m_UseHighQualityCurve: 1
  m_RotationCurves: []
  m_CompressedRotationCurves: []
  m_EulerCurves: []
  m_PositionCurves: []
  m_ScaleCurves: []
  m_FloatCurves: []
  m_PPtrCurves:
  - curve:
    - time: 0
      value: {fileID: 21300000, guid: d0e4870d6b6cc4799bb015798a0b021c, type: 3}
    - time: 0.083333336
      value: {fileID: 21300000, guid: 5f0c45d6e4a8948e39ad56a4d4e6b0c3, type: 3}
    - time: 0.16666667
      value: {fileID: 21300000, guid: 9f1d847e4fcbf4420b2aeecdd7e19cea, type: 3}
    - time: 0.25
      value: {fileID: 21300000, guid: 3470fa4f5a2ab414cb74c7f4c2d8ab26, type: 3}
    - time: 0.33333334
      value: {fileID: 21300000, guid: 944228822d25241a89e5042b824c8f1d, type: 3}
    - time: 0.41666666
      value: {fileID: 21300000, guid: 3ca0b86046455487a889a80f182ede92, type: 3}
    - time: 0.5
      value: {fileID: 21300000, guid: 51624add9f4624ff790097e2ad7351b5, type: 3}
    - time: 0.5833333
      value: {fileID: 21300000, guid: 9179e8c0bcc1a4e83a61346535af6e02, type: 3}
    - time: 0.6666667
      value: {fileID: 21300000, guid: 000bd6ea384a94624bef79f643bc3900, type: 3}
    - time: 0.75
      value: {fileID: 21300000, guid: d46770c61a68c4a568407347d5bf64a9, type: 3}
    - time: 0.8333333
      value: {fileID: 21300000, guid: 8fa789437de734ade99967f6f164c887, type: 3}
    - time: 0.9166667
      value: {fileID: 21300000, guid: 598d69cba72c148c78115f2ae9f4c79a, type: 3}
    - time: 1
      value: {fileID: 21300000, guid: d49cfd514b63f44c9ba1d186c1b28f68, type: 3}
    - time: 1.0833334
      value: {fileID: 21300000, guid: 5882a9df70fc543cca8409b953ef1c9b, type: 3}
    - time: 1.1666666
      value: {fileID: 21300000, guid: 5b281948d749b4d54ba39b0e2dab8196, type: 3}
    - time: 1.25
      value: {fileID: 21300000, guid: fc89e70b23b064b61bb707e115dc8d2d, type: 3}
    - time: 1.3333334
      value: {fileID: 21300000, guid: 3fc922cb1550c4e488083b35869febb7, type: 3}
    - time: 1.4166666
      value: {fileID: 21300000, guid: 6e9482dfe31f24dbc8a4caaa5f50d41a, type: 3}
    - time: 1.5
      value: {fileID: 21300000, guid: 1fcc4d2c2c1784c2f9ce4cd31538bd1d, type: 3}
    - time: 1.5833334
      value: {fileID: 21300000, guid: 9f81d79b5e5e046febe6d39d0c903ee6, type: 3}
    - time: 1.6666666
      value: {fileID: 21300000, guid: a921b1aa669c746daa9937f9e60a6a52, type: 3}
    - time: 1.75
      value: {fileID: 21300000, guid: 3a317592bda3c4a0fa0c312adbc59897, type: 3}
    - time: 1.8333334
      value: {fileID: 21300000, guid: 241596749c3444f3092b56776a354d23, type: 3}
    - time: 1.9166666
      value: {fileID: 21300000, guid: d8cbb614bf8894d93ab7a23cd4f41e28, type: 3}
    - time: 2
      value: {fileID: 21300000, guid: 5c0d24e43cdb74b2c90e60dda9d9f022, type: 3}
    - time: 2.0833333
      value: {fileID: 21300000, guid: 8ea346e7b32a24814935cd8a0e28b54e, type: 3}
    - time: 2.1666667
      value: {fileID: 21300000, guid: a985500c0faad4a178cb6a4b3d5a9ee9, type: 3}
    - time: 2.25
      value: {fileID: 21300000, guid: 8c5f408d696b74346b1f7c4e910e5615, type: 3}
    - time: 2.3333333
      value: {fileID: 21300000, guid: e3b93fdfb7db84213a5b5e6c1cf9a4c3, type: 3}
    - time: 2.4166667
      value: {fileID: 21300000, guid: af8a0838c46544d648773358a7e518d7, type: 3}
    - time: 2.5
      value: {fileID: 21300000, guid: 14e5b7b0f02db45909ad98346ec58082, type: 3}
    - time: 2.5833333
      value: {fileID: 21300000, guid: 13f39890464d7477fb6f73ee1f6f5fc7, type: 3}
    - time: 2.6666667
      value: {fileID: 21300000, guid: 4a641d12b633e4abc97df480c8d16661, type: 3}
    - time: 2.75
      value: {fileID: 21300000, guid: bea9f6912cc184cf6b93d3f17594301c, type: 3}
    - time: 2.8333333
      value: {fileID: 21300000, guid: 2373e39f467134c3d913c67cf94ed5fe, type: 3}
    - time: 2.9166667
      value: {fileID: 21300000, guid: 012f335dda16545c9bdc043d12c6bf26, type: 3}
    - time: 3
      value: {fileID: 21300000, guid: a65ce854f3a8a47e39562205d8cf9c62, type: 3}
    - time: 3.0833333
      value: {fileID: 21300000, guid: 24afccc06a49943bfaa892680a73579f, type: 3}
    - time: 3.1666667
      value: {fileID: 21300000, guid: 88e792a0ef9164a22a258cef0e376a30, type: 3}
    - time: 3.25
      value: {fileID: 21300000, guid: 51c5869b604f841d2a9b9a0b6ebb8570, type: 3}
    - time: 3.3333333
      value: {fileID: 21300000, guid: a85485aa798584c908d626b2e8ad7f29, type: 3}
    attribute: m_Sprite
    path: 
    classID: 212
    script: {fileID: 0}
  m_SampleRate: 12
  m_WrapMode: 0
  m_Bounds:
    m_Center: {x: 0, y: 0, z: 0}
    m_Extent: {x: 0, y: 0, z: 0}
  m_ClipBindingConstant:
    genericBindings:
    - serializedVersion: 2
      path: 0
      attribute: 0
      script: {fileID: 0}
      typeID: 212
      customType: 23
      isPPtrCurve: 1
    pptrCurveMapping:
    - {fileID: 21300000, guid: d0e4870d6b6cc4799bb015798a0b021c, type: 3}
    - {fileID: 21300000, guid: 5f0c45d6e4a8948e39ad56a4d4e6b0c3, type: 3}
    - {fileID: 21300000, guid: 9f1d847e4fcbf4420b2aeecdd7e19cea, type: 3}
    - {fileID: 21300000, guid: 3470fa4f5a2ab414cb74c7f4c2d8ab26, type: 3}
    - {fileID: 21300000, guid: 944228822d25241a89e5042b824c8f1d, type: 3}
    - {fileID: 21300000, guid: 3ca0b86046455487a889a80f182ede92, type: 3}
    - {fileID: 21300000, guid: 51624add9f4624ff790097e2ad7351b5, type: 3}
    - {fileID: 21300000, guid: 9179e8c0bcc1a4e83a61346535af6e02, type: 3}
    - {fileID: 21300000, guid: 000bd6ea384a94624bef79f643bc3900, type: 3}
    - {fileID: 21300000, guid: d46770c61a68c4a568407347d5bf64a9, type: 3}
    - {fileID: 21300000, guid: 8fa789437de734ade99967f6f164c887, type: 3}
    - {fileID: 21300000, guid: 598d69cba72c148c78115f2ae9f4c79a, type: 3}
    - {fileID: 21300000, guid: d49cfd514b63f44c9ba1d186c1b28f68, type: 3}
    - {fileID: 21300000, guid: 5882a9df70fc543cca8409b953ef1c9b, type: 3}
    - {fileID: 21300000, guid: 5b281948d749b4d54ba39b0e2dab8196, type: 3}
    - {fileID: 21300000, guid: fc89e70b23b064b61bb707e115dc8d2d, type: 3}
    - {fileID: 21300000, guid: 3fc922cb1550c4e488083b35869febb7, type: 3}
    - {fileID: 21300000, guid: 6e9482dfe31f24dbc8a4caaa5f50d41a, type: 3}
    - {fileID: 21300000, guid: 1fcc4d2c2c1784c2f9ce4cd31538bd1d, type: 3}
    - {fileID: 21300000, guid: 9f81d79b5e5e046febe6d39d0c903ee6, type: 3}
    - {fileID: 21300000, guid: a921b1aa669c746daa9937f9e60a6a52, type: 3}
    - {fileID: 21300000, guid: 3a317592bda3c4a0fa0c312adbc59897, type: 3}
    - {fileID: 21300000, guid: 241596749c3444f3092b56776a354d23, type: 3}
    - {fileID: 21300000, guid: d8cbb614bf8894d93ab7a23cd4f41e28, type: 3}
    - {fileID: 21300000, guid: 5c0d24e43cdb74b2c90e60dda9d9f022, type: 3}
    - {fileID: 21300000, guid: 8ea346e7b32a24814935cd8a0e28b54e, type: 3}
    - {fileID: 21300000, guid: a985500c0faad4a178cb6a4b3d5a9ee9, type: 3}
    - {fileID: 21300000, guid: 8c5f408d696b74346b1f7c4e910e5615, type: 3}
    - {fileID: 21300000, guid: e3b93fdfb7db84213a5b5e6c1cf9a4c3, type: 3}
    - {fileID: 21300000, guid: af8a0838c46544d648773358a7e518d7, type: 3}
    - {fileID: 21300000, guid: 14e5b7b0f02db45909ad98346ec58082, type: 3}
    - {fileID: 21300000, guid: 13f39890464d7477fb6f73ee1f6f5fc7, type: 3}
    - {fileID: 21300000, guid: 4a641d12b633e4abc97df480c8d16661, type: 3}
    - {fileID: 21300000, guid: bea9f6912cc184cf6b93d3f17594301c, type: 3}
    - {fileID: 21300000, guid: 2373e39f467134c3d913c67cf94ed5fe, type: 3}
    - {fileID: 21300000, guid: 012f335dda16545c9bdc043d12c6bf26, type: 3}
    - {fileID: 21300000, guid: a65ce854f3a8a47e39562205d8cf9c62, type: 3}
    - {fileID: 21300000, guid: 24afccc06a49943bfaa892680a73579f, type: 3}
    - {fileID: 21300000, guid: 88e792a0ef9164a22a258cef0e376a30, type: 3}
    - {fileID: 21300000, guid: 51c5869b604f841d2a9b9a0b6ebb8570, type: 3}
    - {fileID: 21300000, guid: a85485aa798584c908d626b2e8ad7f29, type: 3}
  m_AnimationClipSettings:
    serializedVersion: 2
    m_AdditiveReferencePoseClip: {fileID: 0}
    m_AdditiveReferencePoseTime: 0
    m_StartTime: 0
    m_StopTime: 3.4166665
    m_OrientationOffsetY: 0
    m_Level: 0
    m_CycleOffset: 0
    m_HasAdditiveReferencePose: 0
    m_LoopTime: 1
    m_LoopBlend: 0
    m_LoopBlendOrientation: 0
    m_LoopBlendPositionY: 0
    m_LoopBlendPositionXZ: 0
    m_KeepOriginalOrientation: 0
    m_KeepOriginalPositionY: 1
    m_KeepOriginalPositionXZ: 0
    m_HeightFromFeet: 0
    m_Mirror: 0
  m_EditorCurves: []
  m_EulerEditorCurves: []
  m_HasGenericRootTransform: 0
  m_HasMotionFloatCurves: 0
  m_GenerateMotionCurves: 0
  m_Events: []
